{

   "details": [
       {
			"Experiment": "Formulation and calculation of Y- bus matrix of a given system",
			"Lab": "Virtual Power System Analysis Lab",
			"Discipline": "Electrical Engineering Department",
			"Technology": "Power System"
       }
   ],

   "developer": [
       {
      "Developer": " Dr. Mrs. Trupti P. Hinge ",
      "Institute": "JSPM’s Rajarshi Shahu College of Engineering, Pune",
      "InstituteAcronym": "R.S.C.O.E"
       },

       {
        "Developer": " Mrs. Manjusha A. Kanawade ",
        "Institute": "JSPM’s Rajarshi Shahu College of Engineering, Pune",
        "InstituteAcronym": "R.S.C.O.E"
      }
   ],

   "contributer": [
       {
			"Contributer": "Shreyas Kulkarni",
      "Institute": "Pune Vidyarthi Gruha's College of Engineering and Technology",
			"InstituteAcronym": "P.V.G."
       },

       {
			"Contributer": "Atharva Deshpande",
      "Institute": "Pune Vidyarthi Gruha's College of Engineering and Technology",
			"InstituteAcronym": "P.V.G."
       },

       {
			"Contributer": "Bhavesh Choudhari",
      "Institute": "Pune Vidyarthi Gruha's College of Engineering and Technology",
			"InstituteAcronym": "P.V.G.."
       },

       {
			"Contributer": "Maitreyi Joshi",
      "Institute": "Pune Vidyarthi Gruha's College of Engineering and Technology",
			"InstituteAcronym": "P.V.G.."     
       }     
   ]

}
